Wrapper function for sinus optimisation — run_optimisation • kwb.heatsine
…
kwb.heatsine::run_optimisation(data_sw_selected = data_sw_selected,
data_gw_selected = data_gw_selected,
retardation_factor = 1.8,
sw_monitoring_id = attr(data_sw_selected, "monitoring_id"),
gw_monitoring_id = attr(data_gw_selected, "monitoring_id"),
limits = c(100, 500),
tolerance = 0.001,
debug = FALSE)

#> $data
#> # A tibble: 745 x 9
#>    type  monitoring_id label date       observed simulated residuals
#>    <chr> <chr>         <chr> <date>        <dbl>     <dbl>     <dbl>
#>  1 surf… Txxsxx-mxxxx… surf… 2015-10-10     13.5      14.8     -1.25
#>  2 surf… Txxsxx-mxxxx… surf… 2015-10-11     12.9      14.6     -1.70
#>  3 surf… Txxsxx-mxxxx… surf… 2015-10-12     12.2      14.4     -2.23
#>  4 surf… Txxsxx-mxxxx… surf… 2015-10-13     11.7      14.2     -2.55
#>  5 surf… Txxsxx-mxxxx… surf… 2015-10-14     11.2      14.1     -2.82
#>  6 surf… Txxsxx-mxxxx… surf… 2015-10-15     11.1      13.9     -2.74
#>  7 surf… Txxsxx-mxxxx… surf… 2015-10-16     11.1      13.7     -2.60
#>  8 surf… Txxsxx-mxxxx… surf… 2015-10-17     11.2      13.5     -2.35
#>  9 surf… Txxsxx-mxxxx… surf… 2015-10-18     11.0      13.4     -2.32
#> 10 surf… Txxsxx-mxxxx… surf… 2015-10-19     11.0      13.2     -2.16
#> # … with 735 more rows, and 2 more variables: simulated_pi_lower <dbl>,
#> #   simulated_pi_upper <dbl>
…
