Tutorial • kwb.heatsine
…
Background

According to Cross Validated (2013) the sinus fit can not only be written as y = y0 + amplitude * sin(x + phase_shift), but also in a linear form y = y0 + alpha * sin(x) + beta * cos(x). The latter approach is used within this R package as it enables the calculation of both amplitude (a) and phase_shift (x0) by using R’s build-in stats::lm() function as exemplary shown below:

### Generate synthetic temperature data following sine curve

period_length <- 365 # assumed period length
day_number <- seq_len(period_length) # daily sequence from 1 to period_length
temperature <- 26.9188 + 2.123641 * sin(2 * pi * day_number / period_length + 0.6049163)

x <- 2 * pi * day_number / period_length

### Print first data points:
tibble::tibble(day_number = day_number, temperature = temperature, x = x)
#> # A tibble: 365 x 3
#>    day_number temperature      x
#>         <int>       <dbl>  <dbl>
#>  1          1        28.2 0.0172
#>  2          2        28.2 0.0344
#>  3          3        28.2 0.0516
#>  4          4        28.2 0.0689
#>  5          5        28.3 0.0861
#>  6          6        28.3 0.103 
#>  7          7        28.3 0.120 
#>  8          8        28.4 0.138 
#>  9          9        28.4 0.155 
#> 10         10        28.4 0.172 
#> # … with 355 more rows
…
